{
  "data": [
    {
    "id": "1",
    "name": "In Rainbows",
    "band": {
      "id": "1",
      "name": "Radiohead"
    },
    "year": 2007,
    "label": {
      "id": "SR",
      "name": "Self-released"
    },
    "genre": {
      "id": "AR",
      "description": "Alternative rock"
    }
    },
    {
    "id": "2",
    "name": "Abbey Road",
    "band": {
      "id": "2",
      "name": "The Beatles"
    },
    "year": 1969,
    "label": {
      "id": "SR",
      "name": "Self-released"
    },
    "genre": {
      "id": "Rock",
      "description": "Rock & Roll"
    }
    },
    {
    "id": "3",
    "name": "Provocame",
    "band": {
      "id": "3",
      "name": "Chayanne"
    },
    "year": 1992,
    "label": {
      "id": "SR",
      "name": "Self-released"
    },
    "genre": {
      "id": "Pop-br",
      "description": "Pop latino- balada romantica"
    }
  }
]
}
