[
{
    "name": "Kilroy Was Here",
    "band": {
        "id": "12"
    },
    "year": 1983,
    "label": {
        "id": "AM"
    },
    "genre": {
        "id": "NWPR"
    }
},
{
    "name": "Provocame",
    "band": {
        "id": "13"
    },
    "year": 1992,
    "label": {
        "id": "AM"
    },
    "genre": {
        "id": "LATI"
    }
},
{
    "name": "Abbey Road",
    "band": {
        "id": "14"
    },
    "year": 1969,
    "label": {
        "id": "AM"
    },
    "genre": {
        "id": "POP"
    }
}
]